…
    ## ── Column specification ────────────────────────────────────────────────────────
    ## Delimiter: ","
    ## chr (9): uid, victim_last, victim_first, victim_race, victim_age, victim_sex...
    ## dbl (3): reported_date, lat, lon

    ## 
    ## ℹ Use `spec()` to retrieve the full column specification for this data.
    ## ℹ Specify the column types or set `show_col_types = FALSE` to quiet this message.

``` r
homicide_df
```

    ## # A tibble: 52,179 × 14
    ##    uid        reported_date victim_last  victim_first victim_race victim_age
    ##    <chr>              <dbl> <chr>        <chr>        <chr>       <chr>     
    ##  1 Alb-000001      20100504 GARCIA       JUAN         Hispanic    78        
    ##  2 Alb-000002      20100216 MONTOYA      CAMERON      Hispanic    17        
    ##  3 Alb-000003      20100601 SATTERFIELD  VIVIANA      White       15        
    ##  4 Alb-000004      20100101 MENDIOLA     CARLOS       Hispanic    32        
    ##  5 Alb-000005      20100102 MULA         VIVIAN       White       72        
    ##  6 Alb-000006      20100126 BOOK         GERALDINE    White       91        
    ##  7 Alb-000007      20100127 MALDONADO    DAVID        Hispanic    52        
    ##  8 Alb-000008      20100127 MALDONADO    CONNIE       Hispanic    52        
    ##  9 Alb-000009      20100130 MARTIN-LEYVA GUSTAVO      White       56        
    ## 10 Alb-000010      20100210 HERRERA      ISRAEL       Hispanic    43        
    ## # … with 52,169 more rows, and 8 more variables: victim_sex <chr>, city <chr>,
    ## #   state <chr>, lat <dbl>, lon <dbl>, disposition <chr>, city_state <chr>,
    ## #   solved_or_not <chr>

### Summarize within cities to obtain the total number of homicides and the number of unsolved homicides

``` r
homicide_city = homicide_df %>% 
  count(city_state) %>% 
  rename(total = n)
 
homicide_city
```

    ## # A tibble: 51 × 2
    ##    city_state      total
    ##    <chr>           <int>
    ##  1 Albuquerque, NM   378
    ##  2 Atlanta, GA       973
    ##  3 Baltimore, MD    2827
    ##  4 Baton Rouge, LA   424
    ##  5 Birmingham, AL    800
    ##  6 Boston, MA        614
    ##  7 Buffalo, NY       521
    ##  8 Charlotte, NC     687
    ##  9 Chicago, IL      5535
    ## 10 Cincinnati, OH    694
    ## # … with 41 more rows

``` r
homicide_city_unsolved = homicide_df %>% 
  select(city_state, solved_or_not) %>%
  group_by(city_state) %>% 
  summarise(total_unsolved = sum(solved_or_not == "unsolved")) %>% 
  select(-city_state)
  
homicide_city_unsolved 
```

    ## # A tibble: 51 × 1
    ##    total_unsolved
    ##             <int>
    ##  1            146
    ##  2            373
    ##  3           1825
    ##  4            196
    ##  5            347
    ##  6            310
    ##  7            319
    ##  8            206
    ##  9           4073
    ## 10            309
    ## # … with 41 more rows

``` r
homicide_count = bind_cols(homicide_city, homicide_city_unsolved) %>% 
  view()
homicide_count
```

    ## # A tibble: 51 × 3
    ##    city_state      total total_unsolved
    ##    <chr>           <int>          <int>
    ##  1 Albuquerque, NM   378            146
    ##  2 Atlanta, GA       973            373
    ##  3 Baltimore, MD    2827           1825
    ##  4 Baton Rouge, LA   424            196
    ##  5 Birmingham, AL    800            347
    ##  6 Boston, MA        614            310
    ##  7 Buffalo, NY       521            319
    ##  8 Charlotte, NC     687            206
    ##  9 Chicago, IL      5535           4073
    ## 10 Cincinnati, OH    694            309
    ## # … with 41 more rows
…
``` r
unsolved_prop_city = homicide_count %>% 
  mutate(prop_t = map2(.x = total_unsolved, .y = total, ~prop.test(x = .x, n = .y)), tidy_t = map(.x = prop_t, ~broom::tidy(.x))) %>% 
  unnest(tidy_t) %>% 
  select(city_state, estimate, conf.low, conf.high)
```

    ## Warning in prop.test(x = .x, n = .y): Chi-squared approximation may be incorrect

``` r
unsolved_prop_city
```

    ## # A tibble: 51 × 4
    ##    city_state      estimate conf.low conf.high
    ##    <chr>              <dbl>    <dbl>     <dbl>
    ##  1 Albuquerque, NM    0.386    0.337     0.438
    ##  2 Atlanta, GA        0.383    0.353     0.415
    ##  3 Baltimore, MD      0.646    0.628     0.663
    ##  4 Baton Rouge, LA    0.462    0.414     0.511
    ##  5 Birmingham, AL     0.434    0.399     0.469
    ##  6 Boston, MA         0.505    0.465     0.545
    ##  7 Buffalo, NY        0.612    0.569     0.654
    ##  8 Charlotte, NC      0.300    0.266     0.336
    ##  9 Chicago, IL        0.736    0.724     0.747
    ## 10 Cincinnati, OH     0.445    0.408     0.483
    ## # … with 41 more rows
…
research_tidy
```

    ## # A tibble: 160 × 4
    ##    arm     id    week  observations
    ##    <chr>   <chr> <chr>        <dbl>
    ##  1 control 01    1             0.2 
    ##  2 control 01    2            -1.31
    ##  3 control 01    3             0.66
    ##  4 control 01    4             1.96
    ##  5 control 01    5             0.23
    ##  6 control 01    6             1.09
    ##  7 control 01    7             0.05
    ##  8 control 01    8             1.94
    ##  9 control 02    1             1.13
    ## 10 control 02    2            -0.88
    ## # … with 150 more rows
…
# Problem 3

Load the iris dataset

``` r
set.seed(10)

iris_with_missing = iris %>% 
  map_df(~replace(.x, sample(1:150, 20), NA)) %>%
  mutate(Species = as.character(Species)) 

iris_with_missing
```

    ## # A tibble: 150 × 5
    ##    Sepal.Length Sepal.Width Petal.Length Petal.Width Species
    ##           <dbl>       <dbl>        <dbl>       <dbl> <chr>  
    ##  1          5.1         3.5          1.4         0.2 setosa 
    ##  2          4.9         3            1.4         0.2 setosa 
    ##  3          4.7         3.2          1.3         0.2 setosa 
    ##  4          4.6         3.1          1.5        NA   setosa 
    ##  5          5           3.6          1.4         0.2 setosa 
    ##  6          5.4         3.9          1.7         0.4 setosa 
    ##  7         NA           3.4          1.4         0.3 setosa 
    ##  8          5           3.4          1.5         0.2 setosa 
    ##  9          4.4         2.9          1.4         0.2 setosa 
    ## 10          4.9         3.1         NA           0.1 setosa 
    ## # … with 140 more rows
…
### Apply this function to the columns of iris\_with\_missing using a map statement

``` r
map_df(iris_with_missing, iris_wo_missing) 
```

    ## # A tibble: 150 × 5
    ##    Sepal.Length Sepal.Width Petal.Length Petal.Width Species
    ##           <dbl>       <dbl>        <dbl>       <dbl> <chr>  
    ##  1          5.1         3.5          1.4         0.2 setosa 
    ##  2          4.9         3            1.4         0.2 setosa 
    ##  3          4.7         3.2          1.3         0.2 setosa 
    ##  4          4.6         3.1          1.5         1.2 setosa 
    ##  5          5           3.6          1.4         0.2 setosa 
    ##  6          5.4         3.9          1.7         0.4 setosa 
    ##  7          5.8         3.4          1.4         0.3 setosa 
    ##  8          5           3.4          1.5         0.2 setosa 
    ##  9          4.4         2.9          1.4         0.2 setosa 
    ## 10          4.9         3.1          3.8         0.1 setosa 
    ## # … with 140 more rows
